G04 SaliCAD Gerber export. www.salilab.com *
%ASAXBY*
FSLAX33Y33*
MIA0B0*
MOMM*
OFA0B0*
SFA1.0B1.0*%
%IJALBL*
INsignalTop*
IOA0B0*%
%IPPOS*
IR0*%
G04 Define Apertures*
%ADD16C,0.002*%
%ADD21C,0.200*%
%ADD20C,0.300*%
%ADD22C,1.000*%
%ADD19C,1.600*%
%ADD14C,1.700*%
%ADD11C,1.800*%
%ADD15C,3.500*%
%ADD12C,5.200*%
%ADD18R,0.501X2.501*%
%ADD10R,0.801X1.001*%
%ADD13R,0.901X0.801*%
%ADD17R,1.501X1.601*%
%LPD*%
G36*
X27375Y23375D02*
X33375Y23375D01*
X33375Y17375D01*
X27375Y17375D01*
G37*
%LPD*%
G36*
X25125Y23265D02*
X25125Y22984D01*
X26626Y22984D01*
X26626Y23265D01*
G37*
G36*
X25125Y18765D02*
X25125Y18484D01*
X26626Y18484D01*
X26626Y18765D01*
G37*
G36*
X25125Y18265D02*
X25125Y17984D01*
X26626Y17984D01*
X26626Y18265D01*
G37*
G36*
X25125Y17765D02*
X25125Y17484D01*
X26626Y17484D01*
X26626Y17765D01*
G37*
G36*
X27485Y16625D02*
X27485Y15124D01*
X27766Y15124D01*
X27766Y16625D01*
G37*
G36*
X27985Y16625D02*
X27985Y15124D01*
X28266Y15124D01*
X28266Y16625D01*
G37*
G36*
X28485Y16625D02*
X28485Y15124D01*
X28766Y15124D01*
X28766Y16625D01*
G37*
G36*
X28985Y16625D02*
X28985Y15124D01*
X29266Y15124D01*
X29266Y16625D01*
G37*
G36*
X29485Y16625D02*
X29485Y15124D01*
X29766Y15124D01*
X29766Y16625D01*
G37*
G36*
X29985Y16625D02*
X29985Y15124D01*
X30266Y15124D01*
X30266Y16625D01*
G37*
G36*
X30485Y16625D02*
X30485Y15124D01*
X30766Y15124D01*
X30766Y16625D01*
G37*
G36*
X25125Y22765D02*
X25125Y22484D01*
X26626Y22484D01*
X26626Y22765D01*
G37*
G36*
X30985Y16625D02*
X30985Y15124D01*
X31266Y15124D01*
X31266Y16625D01*
G37*
G36*
X31485Y16625D02*
X31485Y15124D01*
X31766Y15124D01*
X31766Y16625D01*
G37*
G36*
X31985Y16625D02*
X31985Y15124D01*
X32266Y15124D01*
X32266Y16625D01*
G37*
G36*
X32485Y16625D02*
X32485Y15124D01*
X32766Y15124D01*
X32766Y16625D01*
G37*
G36*
X32985Y16625D02*
X32985Y15124D01*
X33266Y15124D01*
X33266Y16625D01*
G37*
G36*
X34125Y17765D02*
X34125Y17484D01*
X35626Y17484D01*
X35626Y17765D01*
G37*
G36*
X34125Y18265D02*
X34125Y17984D01*
X35626Y17984D01*
X35626Y18265D01*
G37*
G36*
X34125Y18765D02*
X34125Y18484D01*
X35626Y18484D01*
X35626Y18765D01*
G37*
G36*
X34125Y19265D02*
X34125Y18984D01*
X35626Y18984D01*
X35626Y19265D01*
G37*
G36*
X34125Y19765D02*
X34125Y19484D01*
X35626Y19484D01*
X35626Y19765D01*
G37*
G36*
X25125Y22265D02*
X25125Y21984D01*
X26626Y21984D01*
X26626Y22265D01*
G37*
G36*
X34125Y20265D02*
X34125Y19984D01*
X35626Y19984D01*
X35626Y20265D01*
G37*
G36*
X34125Y20765D02*
X34125Y20484D01*
X35626Y20484D01*
X35626Y20765D01*
G37*
G36*
X34125Y21265D02*
X34125Y20984D01*
X35626Y20984D01*
X35626Y21265D01*
G37*
G36*
X34125Y21765D02*
X34125Y21484D01*
X35626Y21484D01*
X35626Y21765D01*
G37*
G36*
X34125Y22265D02*
X34125Y21984D01*
X35626Y21984D01*
X35626Y22265D01*
G37*
G36*
X34125Y22765D02*
X34125Y22484D01*
X35626Y22484D01*
X35626Y22765D01*
G37*
G36*
X34125Y23265D02*
X34125Y22984D01*
X35626Y22984D01*
X35626Y23265D01*
G37*
G36*
X32985Y25625D02*
X32985Y24124D01*
X33266Y24124D01*
X33266Y25625D01*
G37*
G36*
X32485Y25625D02*
X32485Y24124D01*
X32766Y24124D01*
X32766Y25625D01*
G37*
G36*
X31985Y25625D02*
X31985Y24124D01*
X32266Y24124D01*
X32266Y25625D01*
G37*
G36*
X25125Y21765D02*
X25125Y21484D01*
X26626Y21484D01*
X26626Y21765D01*
G37*
G36*
X31485Y25625D02*
X31485Y24124D01*
X31766Y24124D01*
X31766Y25625D01*
G37*
G36*
X30985Y25625D02*
X30985Y24124D01*
X31266Y24124D01*
X31266Y25625D01*
G37*
G36*
X30485Y25625D02*
X30485Y24124D01*
X30766Y24124D01*
X30766Y25625D01*
G37*
G36*
X29985Y25625D02*
X29985Y24124D01*
X30266Y24124D01*
X30266Y25625D01*
G37*
G36*
X29485Y25625D02*
X29485Y24124D01*
X29766Y24124D01*
X29766Y25625D01*
G37*
G36*
X28985Y25625D02*
X28985Y24124D01*
X29266Y24124D01*
X29266Y25625D01*
G37*
G36*
X28485Y25625D02*
X28485Y24124D01*
X28766Y24124D01*
X28766Y25625D01*
G37*
G36*
X27985Y25625D02*
X27985Y24124D01*
X28266Y24124D01*
X28266Y25625D01*
G37*
G36*
X27485Y25625D02*
X27485Y24124D01*
X27766Y24124D01*
X27766Y25625D01*
G37*
G36*
X25125Y21265D02*
X25125Y20984D01*
X26626Y20984D01*
X26626Y21265D01*
G37*
G36*
X25125Y20765D02*
X25125Y20484D01*
X26626Y20484D01*
X26626Y20765D01*
G37*
G36*
X25125Y20265D02*
X25125Y19984D01*
X26626Y19984D01*
X26626Y20265D01*
G37*
G36*
X25125Y19765D02*
X25125Y19484D01*
X26626Y19484D01*
X26626Y19765D01*
G37*
G36*
X25125Y19265D02*
X25125Y18984D01*
X26626Y18984D01*
X26626Y19265D01*
G37*
G36*
X22500Y6000D02*
X22500Y11501D01*
X20499Y11501D01*
X20499Y6000D01*
G37*
G36*
X22500Y16000D02*
X22500Y21501D01*
X20499Y21501D01*
X20499Y16000D01*
G37*
G54D10*
G55X22124Y22499D03*
G55X20524Y22499D03*
G55X21499Y4999D03*
G55X19899Y4999D03*
G36*
X24125Y14150D02*
X24125Y13349D01*
X25126Y13349D01*
X25126Y14150D01*
G37*
G36*
X24125Y12550D02*
X24125Y11749D01*
X25126Y11749D01*
X25126Y12550D01*
G37*
G36*
X26275Y11925D02*
X26275Y12826D01*
X25474Y12826D01*
X25474Y11925D01*
G37*
G36*
X26275Y13425D02*
X26275Y14326D01*
X25474Y14326D01*
X25474Y13425D01*
G37*
G36*
X15600Y22650D02*
X15600Y20849D01*
X17401Y20849D01*
X17401Y22650D01*
G37*
G54D11*
G55X16500Y19000D03*
G54D12*
G55X14025Y28750D03*
G55X14025Y3750D03*
G54D11*
G55X16500Y16250D03*
G55X16500Y13500D03*
G55X16500Y10750D03*
G55X13750Y20375D03*
G55X13750Y17625D03*
G55X13750Y14875D03*
G55X13750Y12125D03*
G36*
X27750Y26625D02*
X27750Y27126D01*
X25249Y27126D01*
X25249Y26625D01*
G37*
G36*
X27750Y27895D02*
X27750Y28396D01*
X25249Y28396D01*
X25249Y27895D01*
G37*
G36*
X27750Y29165D02*
X27750Y29666D01*
X25249Y29666D01*
X25249Y29165D01*
G37*
G36*
X27750Y30435D02*
X27750Y30936D01*
X25249Y30936D01*
X25249Y30435D01*
G37*
G36*
X21750Y30435D02*
X21750Y30936D01*
X19249Y30936D01*
X19249Y30435D01*
G37*
G36*
X21750Y29165D02*
X21750Y29666D01*
X19249Y29666D01*
X19249Y29165D01*
G37*
G36*
X21750Y27895D02*
X21750Y28396D01*
X19249Y28396D01*
X19249Y27895D01*
G37*
G36*
X21750Y26625D02*
X21750Y27126D01*
X19249Y27126D01*
X19249Y26625D01*
G37*
G54D13*
G55X22249Y24999D03*
G55X20749Y24999D03*
G36*
X32725Y10950D02*
X32725Y11551D01*
X31524Y11551D01*
X31524Y10950D01*
G37*
G36*
X32725Y11900D02*
X32725Y12501D01*
X31524Y12501D01*
X31524Y11900D01*
G37*
G36*
X32725Y12850D02*
X32725Y13451D01*
X31524Y13451D01*
X31524Y12850D01*
G37*
G36*
X29925Y12850D02*
X29925Y13451D01*
X28724Y13451D01*
X28724Y12850D01*
G37*
G36*
X29925Y10950D02*
X29925Y11551D01*
X28724Y11551D01*
X28724Y10950D01*
G37*
G54D14*
G55X35125Y9375D03*
G55X35125Y6875D03*
G55X37125Y6875D03*
G55X37125Y9375D03*
G54D15*
G55X39825Y2175D03*
G55X39825Y14075D03*
G36*
X18775Y21300D02*
X18775Y22201D01*
X17974Y22201D01*
X17974Y21300D01*
G37*
G36*
X18775Y22800D02*
X18775Y23701D01*
X17974Y23701D01*
X17974Y22800D01*
G37*
G54D16*
G01X5250Y32500D02*
G01X45250Y32500D01*
G01X45250Y0D01*
G01X5250Y0D01*
G01X5250Y32500D01*
G54D17*
G55X39000Y27500D03*
G55X42500Y27500D03*
G36*
X33775Y27550D02*
X33775Y28451D01*
X32974Y28451D01*
X32974Y27550D01*
G37*
G36*
X33775Y29050D02*
X33775Y29951D01*
X32974Y29951D01*
X32974Y29050D01*
G37*
G55X39000Y30625D03*
G55X42500Y30625D03*
G36*
X31900Y28175D02*
X31900Y29076D01*
X31099Y29076D01*
X31099Y28175D01*
G37*
G36*
X31900Y29675D02*
X31900Y30576D01*
X31099Y30576D01*
X31099Y29675D01*
G37*
G54D18*
G55X28999Y8749D03*
G55X27729Y8749D03*
G55X26459Y8749D03*
G55X25189Y8749D03*
G55X25189Y2749D03*
G55X26459Y2749D03*
G55X27729Y2749D03*
G55X28999Y2749D03*
G36*
X42300Y17325D02*
X42300Y18926D01*
X40699Y18926D01*
X40699Y17325D01*
G37*
G54D19*
G55X41500Y20665D03*
G55X41500Y23205D03*
G54D10*
G55X31500Y9375D03*
G55X33100Y9375D03*
G55X34625Y15000D03*
G55X36225Y15000D03*
G55X25249Y24999D03*
G55X23649Y24999D03*
G55X38374Y23749D03*
G55X36774Y23749D03*
G54D20*
G01X42500Y30625D02*
G01X42500Y27500D01*
G01X35125Y9375D02*
G01X33100Y9375D01*
G01X33100Y6159D01*
G01X29691Y2750D01*
G01X29000Y2750D01*
G01X33100Y9375D02*
G01X33100Y10997D01*
G01X32847Y11250D01*
G01X32125Y11250D01*
G01X32125Y13150D02*
G01X34033Y13150D01*
G01X35125Y12058D01*
G01X35125Y9375D01*
G54D21*
G01X32125Y12200D02*
G01X33331Y12200D01*
G01X33800Y11731D01*
G54D22*
G55X33800Y11731D03*
G54D21*
G01X26460Y2750D02*
G01X26460Y1456D01*
G01X25743Y739D01*
G01X19563Y739D01*
G01X17386Y2916D01*
G01X17386Y5828D02*
G01X17386Y2916D01*
G01X15344Y7870D02*
G01X17386Y5828D01*
G01X12813Y7870D02*
G01X15344Y7870D01*
G01X12813Y7870D02*
G01X11343Y9340D01*
G01X11343Y12468D01*
G01X13750Y14875D01*
G01X13750Y12125D02*
G01X13750Y10472D01*
G01X15263Y8959D01*
G01X16243Y8959D01*
G01X18012Y7190D01*
G01X18012Y4441D01*
G01X19155Y3298D01*
G01X23049Y3298D02*
G01X19155Y3298D01*
G01X24546Y4795D02*
G01X23049Y3298D01*
G01X24546Y4795D02*
G01X27049Y4795D01*
G01X27730Y4114D01*
G01X27730Y2750D01*
G01X25190Y2750D02*
G01X24003Y2750D01*
G54D22*
G55X24003Y2750D03*
G54D21*
G01X31500Y9375D02*
G01X31500Y8075D01*
G54D22*
G55X31500Y8075D03*
G54D21*
G01X26460Y8750D02*
G01X26460Y6527D01*
G01X27712Y6527D01*
G01X27730Y6509D01*
G01X27730Y8750D01*
G01X27730Y6509D02*
G01X29444Y6509D01*
G01X30452Y7517D01*
G01X30452Y9939D01*
G01X31023Y10510D01*
G01X31023Y13941D01*
G01X30424Y14540D01*
G01X29917Y14540D01*
G01X29625Y14832D02*
G01X29917Y14540D01*
G01X29625Y15875D02*
G01X29625Y14832D01*
G01X29000Y8750D02*
G01X29744Y9494D01*
G01X29744Y10047D01*
G01X30453Y10756D01*
G01X30453Y13534D01*
G01X30065Y13922D01*
G01X28106Y13922D01*
G01X27625Y14403D01*
G01X27625Y15875D01*
G01X34875Y23125D02*
G01X33125Y23125D01*
G01X27625Y23125D02*
G01X27625Y24875D01*
G01X25875Y23125D02*
G01X27625Y23125D01*
G01X27675Y23125D01*
G01X25875Y19125D02*
G01X27648Y19125D01*
G01X27893Y23125D02*
G01X27866Y23125D01*
G01X27866Y19125D02*
G01X27866Y23125D01*
G01X27675Y23125D01*
G01X33092Y23125D02*
G01X27893Y23125D01*
G01X33125Y15875D02*
G01X33125Y23125D01*
G01X33092Y23125D01*
G01X11887Y21309D02*
G01X11887Y18246D01*
G01X12508Y17625D01*
G01X13750Y17625D01*
G01X20500Y29415D02*
G01X19077Y29415D01*
G01X18638Y28976D01*
G01X18638Y25229D01*
G01X19291Y24576D01*
G01X19291Y22666D01*
G01X18375Y21750D01*
G01X11887Y21309D02*
G01X17958Y27380D01*
G01X17958Y30946D01*
G01X18719Y31707D01*
G01X21877Y31707D01*
G01X22422Y31162D01*
G01X22422Y28785D01*
G01X21782Y28145D01*
G01X20500Y28145D01*
G01X18375Y21750D02*
G01X18375Y20556D01*
G01X16819Y19000D01*
G01X16500Y19000D01*
G01X18375Y23250D02*
G01X17557Y23250D01*
G01X16500Y22193D01*
G01X16500Y21750D01*
G01X31625Y24875D02*
G01X31625Y28500D01*
G01X31500Y28625D01*
G01X32125Y24875D02*
G01X32125Y26522D01*
G01X33375Y27772D01*
G01X33375Y28000D01*
G01X34875Y22125D02*
G01X36875Y22125D01*
G01X34875Y23125D02*
G01X35516Y23125D01*
G01X36141Y23750D01*
G01X36775Y23750D01*
G01X26500Y26875D02*
G01X26955Y26875D01*
G01X26995Y26835D01*
G01X28082Y26835D01*
G01X28625Y26292D01*
G01X28625Y24875D01*
G01X26500Y30685D02*
G01X28250Y30685D01*
G01X29125Y29810D01*
G01X29125Y24875D01*
G01X33375Y29500D02*
G01X37000Y29500D01*
G01X39000Y27500D01*
G01X31500Y30125D02*
G01X31500Y30459D01*
G01X31666Y30625D01*
G01X39000Y30625D01*
G01X24951Y29415D02*
G01X23650Y28114D01*
G01X24951Y29415D02*
G01X26500Y29415D01*
G01X34875Y21625D02*
G01X36346Y21625D01*
G01X34875Y21125D02*
G01X36083Y21125D01*
G01X36930Y20278D01*
G36*
X37525Y16925D02*
X37525Y17826D01*
X36724Y17826D01*
X36724Y16925D01*
G37*
G36*
X37525Y18425D02*
X37525Y19326D01*
X36724Y19326D01*
X36724Y18425D01*
G37*
G36*
X38775Y16925D02*
X38775Y17826D01*
X37974Y17826D01*
X37974Y16925D01*
G37*
G36*
X38775Y18425D02*
X38775Y19326D01*
X37974Y19326D01*
X37974Y18425D01*
G37*
G01X36346Y21625D02*
G01X38375Y19596D01*
G01X38375Y18875D01*
G01X38375Y17375D02*
G01X38375Y16034D01*
G01X37583Y15242D01*
G01X37583Y12712D01*
G01X38972Y11323D01*
G01X38972Y8722D01*
G01X37125Y6875D01*
G01X36930Y20278D02*
G01X36930Y19070D01*
G01X37125Y18875D01*
G01X37125Y17375D02*
G01X37125Y12299D01*
G01X38400Y11024D01*
G01X38400Y8791D01*
G01X37802Y8193D01*
G01X35564Y8193D01*
G01X35125Y7754D01*
G01X35125Y6875D01*
G01X36875Y22125D02*
G01X40875Y18125D01*
G01X41500Y18125D01*
G01X34875Y22625D02*
G01X38342Y22625D01*
G01X38375Y22592D01*
G01X38375Y23750D01*
G01X38375Y22592D02*
G01X40443Y20524D01*
G01X41500Y20524D01*
G01X41500Y20665D01*
G01X42500Y27500D02*
G01X42500Y25515D01*
G01X43327Y24688D01*
G01X43327Y22492D01*
G01X41500Y20665D01*
G01X33125Y24875D02*
G01X33741Y24875D01*
G01X33745Y24879D01*
G01X39826Y24879D01*
G01X41500Y23205D01*
G01X29625Y24875D02*
G01X29625Y26175D01*
G01X30288Y26838D01*
G54D22*
G55X30288Y26838D03*
G54D21*
G01X25875Y23125D02*
G01X24989Y23125D01*
G01X23650Y25000D02*
G01X23650Y24464D01*
G01X23650Y25000D02*
G01X23650Y28114D01*
G01X28125Y24875D02*
G01X28125Y25981D01*
G01X26231Y25981D01*
G01X25250Y25000D01*
G01X24518Y25732D01*
G01X24518Y27583D01*
G01X25080Y28145D01*
G01X26500Y28145D01*
G01X25250Y25000D02*
G01X26544Y25000D01*
G54D22*
G55X26544Y25000D03*
G54D21*
G01X23650Y24464D02*
G01X24989Y23125D01*
G01X33125Y15875D02*
G01X33908Y16658D01*
G01X35270Y16658D01*
G01X36225Y15703D01*
G01X36225Y15000D01*
G01X34625Y15000D02*
G01X36059Y13566D01*
G01X36059Y11818D01*
G01X37125Y10752D01*
G01X37125Y9375D01*
G01X34625Y15000D02*
G01X34051Y14426D01*
G01X32971Y14426D01*
G01X32625Y14772D01*
G01X32625Y15875D01*
G01X29325Y11250D02*
G01X29181Y11250D01*
G01X29145Y11214D01*
G01X21500Y5000D02*
G01X21500Y8750D01*
G01X25875Y20625D02*
G01X24021Y20625D01*
G01X23047Y19651D02*
G01X24021Y20625D01*
G01X23047Y14789D02*
G01X23047Y19651D01*
G01X21500Y13242D02*
G01X23047Y14789D01*
G01X25875Y21125D02*
G01X23439Y21125D01*
G01X21132Y18818D01*
G01X21568Y18818D02*
G01X21500Y18750D01*
G01X21568Y18818D02*
G01X21568Y21943D01*
G01X22125Y22500D01*
G01X25875Y20125D02*
G01X24473Y20125D01*
G01X23536Y19188D02*
G01X24473Y20125D01*
G01X23536Y15464D02*
G01X23536Y19188D01*
G01X19900Y5000D02*
G01X19210Y5690D01*
G01X19210Y6696D01*
G54D22*
G55X19210Y6696D03*
G54D21*
G01X29145Y11214D02*
G01X27984Y12375D01*
G01X25875Y12375D01*
G01X27001Y13501D01*
G01X27001Y16964D01*
G01X27621Y17584D01*
G01X27648Y19125D02*
G01X27866Y19125D01*
G01X27621Y17584D02*
G01X27621Y19098D01*
G01X27648Y19125D01*
G01X25875Y17625D02*
G01X25875Y15437D01*
G54D22*
G55X25875Y15437D03*
G55X25875Y11051D03*
G54D21*
G01X25875Y11051D02*
G01X25190Y10366D01*
G01X25190Y8750D01*
G01X25875Y13875D02*
G01X24769Y13875D01*
G01X24894Y13750D02*
G01X24769Y13875D01*
G01X24625Y14375D02*
G01X23536Y15464D01*
G01X24625Y14375D02*
G01X24625Y13750D01*
G01X24894Y13750D01*
G01X24625Y12150D02*
G01X24625Y11158D01*
G01X23946Y10479D01*
G54D22*
G55X23946Y10561D03*
G54D21*
G01X21500Y8750D02*
G01X21500Y13242D01*
G01X23946Y10479D02*
G01X23946Y10561D01*
G01X20500Y26875D02*
G01X20500Y25071D01*
G01X20571Y25000D01*
G01X20750Y25000D01*
G01X22250Y25000D02*
G01X21094Y23844D01*
G54D22*
G55X21094Y23844D03*
G54D21*
G01X20525Y22500D02*
G01X20525Y22638D01*
G01X20516Y22647D01*
G01X20516Y23266D01*
G01X21094Y23844D01*
G01X21568Y18818D02*
G01X21132Y18818D01*
G01X25875Y19625D02*
G01X24654Y19625D01*
G01X24055Y19026D01*
G01X24055Y17394D01*
G01X24844Y16605D01*
G54D22*
G55X24844Y16605D03*
M02*